# compile vhdl design source files
vhdl xil_defaultlib  "../../../MIPSProcessor.srcs/sources_1/new/ProgramCounterMUX.vhd"
vhdl xil_defaultlib  "../../../MIPSProcessor.srcs/sources_1/new/ProgramCounterINC4.vhd"
vhdl xil_defaultlib  "../../../MIPSProcessor.srcs/sources_1/new/ProgramCounterAdd.vhd"
vhdl xil_defaultlib  "../../../MIPSProcessor.srcs/sources_1/new/ProgramCounter.vhd"
vhdl xil_defaultlib  "../../../MIPSProcessor.srcs/sources_1/new/InstructionMemory.vhd"
vhdl xil_defaultlib  "../../../MIPSProcessor.srcs/sources_1/new/ALU.vhd"
vhdl xil_defaultlib  "../../../MIPSProcessor.srcs/sources_1/new/SignExtend.vhd"
vhdl xil_defaultlib  "../../../MIPSProcessor.srcs/sources_1/new/RegistersMux.vhd"
vhdl xil_defaultlib  "../../../MIPSProcessor.srcs/sources_1/new/Registers.vhd"
vhdl xil_defaultlib  "../../../MIPSProcessor.srcs/sources_1/new/MUX32.vhd"
vhdl xil_defaultlib  "../../../MIPSProcessor.srcs/sources_1/new/Memory.vhd"
vhdl xil_defaultlib  "../../../MIPSProcessor.srcs/sources_1/new/ALUControl.vhd"
vhdl xil_defaultlib  "../../../MIPSProcessor.srcs/sources_1/new/PC_Top.vhd"
vhdl xil_defaultlib  "../../../MIPSProcessor.srcs/sources_1/new/Control.vhd"
vhdl xil_defaultlib  "../../../MIPSProcessor.srcs/sources_1/imports/src/uart.vhd"
vhdl xil_defaultlib  "../../../MIPSProcessor.srcs/sources_1/new/uart_to_IMem.vhd"
vhdl xil_defaultlib  "../../../MIPSProcessor.srcs/sim_1/new/TB_Control.vhd"
vhdl xil_defaultlib  "../../../MIPSProcessor.srcs/sim_1/new/TB_Registers.vhd"
vhdl xil_defaultlib  "../../../MIPSProcessor.srcs/sim_1/new/TB_PCTop.vhd"
vhdl xil_defaultlib  "../../../MIPSProcessor.srcs/sim_1/new/TB_PCADD.vhd"
vhdl xil_defaultlib  "../../../MIPSProcessor.srcs/sim_1/new/TB_InstructionMemory.vhd"
vhdl xil_defaultlib  "../../../MIPSProcessor.srcs/sim_1/new/TB_ADD4.vhd"
vhdl xil_defaultlib  "../../../MIPSProcessor.srcs/sim_1/new/TB_uart_to_IMem.vhd"

# Do not sort compile order
nosort
